^C:\USERS\ROG\SOURCE\REPOS\PROJECT1MYSTRING\DEBUG\MYSTRING.OBJ|C:\USERS\ROG\SOURCE\REPOS\PROJECT1MYSTRING\DEBUG\PROJECT1MYSTRING.OBJ
C:\USERS\ROG\SOURCE\REPOS\PROJECT1MYSTRING\DEBUG\PROJECT1MYSTRING.EXE
C:\USERS\ROG\SOURCE\REPOS\PROJECT1MYSTRING\DEBUG\PROJECT1MYSTRING.ILK
C:\USERS\ROG\SOURCE\REPOS\PROJECT1MYSTRING\DEBUG\PROJECT1MYSTRING.PDB
